M09-2-Application Assignment: Data Import and Export – Arturo Rosas
…
# Check dimensions
dim(s_t_ratio_2nd_edu_2016)

[1] 151   8

# View result
s_t_ratio_2nd_edu_2016

# A tibble: 151 × 8
   edulit_ind indicator      country_code country  year student_ratio flag_codes
   <chr>      <chr>          <chr>        <chr>   <dbl>         <dbl> <chr>     
 1 PTRHC_2T3  Secondary Edu… GRC          Greece   2016          8.40 <NA>      
 2 PTRHC_2T3  Secondary Edu… SRB          Serbia   2016          8.23 <NA>      
 3 PTRHC_2T3  Secondary Edu… KOR          Republ…  2016         13.8  <NA>      
 4 PTRHC_2T3  Secondary Edu… RWA          Rwanda   2016         18.6  <NA>      
 5 PTRHC_2T3  Secondary Edu… PAN          Panama   2016         14.5  <NA>      
 6 PTRHC_2T3  Secondary Edu… 40042        Lower …  2016         22.5  <NA>      
 7 PTRHC_2T3  Secondary Edu… AUT          Austria  2016          9.42 <NA>      
 8 PTRHC_2T3  Secondary Edu… ARE          United…  2016          9.55 <NA>      
 9 PTRHC_2T3  Secondary Edu… 40510        World    2016         17.1  <NA>      
10 PTRHC_2T3  Secondary Edu… MLT          Malta    2016          7.21 <NA>      
# ℹ 141 more rows
# ℹ 1 more variable: flags <chr>
…
